TP1.2.sim/sim_1/behav/xsim/simulate.log
Vivado Simulator 2019.2
Time resolution is 1 ps
a = 00000000, b = 00000000, op = 000000, out = 00000000                   0
a = 01010101, b = 00010101, op = 000000, out = 00000000                   5
a = 01010000, b = 01000100, op = 100110, out = 00010100                  15
a = 01011101, b = 01010010, op = 000010, out = 00000000                  25
a = 01101011, b = 01001000, op = 100100, out = 01001000                  35
a = 10000011, b = 01010110, op = 100111, out = 00101000                  45
a = 10001011, b = 01101001, op = 100100, out = 00001001                  55
a = 10011110, b = 10001101, op = 100010, out = 00010001                  65
a = 10011010, b = 10001001, op = 100100, out = 10001000                  75
a = 10010100, b = 10000101, op = 111111, out = 00000000                  85
a = 10111110, b = 10001001, op = 100000, out = 01000111                  95
a = 10111111, b = 11000000, op = 100111, out = 00000000                 105
a = 11000111, b = 10101010, op = 000010, out = 00000000                 115
a = 11010101, b = 10100101, op = 000011, out = 11111111                 125
a = 00000100, b = 11010111, op = 100100, out = 00000100                 135
a = 00001100, b = 11101111, op = 100100, out = 00001100                 145
a = 00001000, b = 11011000, op = 100000, out = 11100000                 155
a = 00000011, b = 11110011, op = 000011, out = 00000000                 165
a = 00011010, b = 11110111, op = 100000, out = 00010001                 175
a = 00111111, b = 11110011, op = 100111, out = 00000000                 185
a = 00101000, b = 00101010, op = 100111, out = 11010101                 195
a = 00110110, b = 00010011, op = 111111, out = 00000000                 205
a = 01010101, b = 00100110, op = 100110, out = 01110011                 215
a = 01101101, b = 01000000, op = 111111, out = 00000000                 225
a = 01101001, b = 01011000, op = 100111, out = 10000110                 235
a = 01110001, b = 01011001, op = 111111, out = 00000000                 245
a = 01110110, b = 01100111, op = 000010, out = 00000000                 255
a = 10000100, b = 01100001, op = 100110, out = 11100101                 265
a = 10010110, b = 01011100, op = 100000, out = 11110010                 275
a = 10010010, b = 10001100, op = 111111, out = 00000000                 285
a = 10110111, b = 10010100, op = 100101, out = 10110111                 295
a = 10110010, b = 10100010, op = 100110, out = 00010000                 305
a = 11000101, b = 10011101, op = 000010, out = 00000000                 315
a = 11010011, b = 11000111, op = 100000, out = 10011010                 325
a = 11100101, b = 11010101, op = 100111, out = 00001010                 335
a = 11011111, b = 11000010, op = 100110, out = 00011101                 345
a = 11011011, b = 11001010, op = 100111, out = 00100100                 355
a = 00001010, b = 11011101, op = 100010, out = 00101101                 365
a = 00010010, b = 11110101, op = 100101, out = 11110111                 375
a = 00100000, b = 11110001, op = 100100, out = 00100000                 385
a = 00001010, b = 00001011, op = 000010, out = 00000000                 395
a = 01011000, b = 00001100, op = 100100, out = 00001000                 405
a = 01010011, b = 00100100, op = 111111, out = 00000000                 415
a = 01000001, b = 00111110, op = 100100, out = 00000000                 425
a = 01001001, b = 01000011, op = 100101, out = 01001011                 435
a = 01011100, b = 00101100, op = 100010, out = 00110000                 445
a = 01110100, b = 01000111, op = 100010, out = 00101101                 455
a = 10000010, b = 01011111, op = 000010, out = 00000000                 465
a = 10001010, b = 01110001, op = 100101, out = 11111011                 475
a = 10001010, b = 01111010, op = 100100, out = 00001010                 485
a = 10110101, b = 01110101, op = 100010, out = 01000000                 495
a = 10111101, b = 10001101, op = 000010, out = 00000000                 505
a = 10101010, b = 10110001, op = 000011, out = 11111111                 515
a = 10111101, b = 10101100, op = 100110, out = 00010001                 525
a = 11000101, b = 10010110, op = 100111, out = 00101000                 535
a = 11011101, b = 10100100, op = 100110, out = 01111001                 545
a = 00000010, b = 11011111, op = 111111, out = 00000000                 555
a = 11111000, b = 11101101, op = 100000, out = 11100101                 565
a = 11110100, b = 11010111, op = 111111, out = 00000000                 575
a = 00011110, b = 11011111, op = 100111, out = 00100000                 585
a = 00100011, b = 00100000, op = 100010, out = 00000011                 595
a = 00011001, b = 00001110, op = 000010, out = 00000000                 605
a = 00100111, b = 00000100, op = 100110, out = 00100011                 615
a = 00111111, b = 00010010, op = 100000, out = 01010001                 625
a = 01011110, b = 00100100, op = 000011, out = 00000000                 635
a = 01011010, b = 01001001, op = 100010, out = 00010001                 645
a = 01010101, b = 01000101, op = 000011, out = 00000000                 655
a = 01110000, b = 01010111, op = 000010, out = 00000000                 665
a = 10011111, b = 01011111, op = 111111, out = 00000000                 675
a = 01111010, b = 01111100, op = 100010, out = 11111110                 685
a = 10010101, b = 01100101, op = 111111, out = 00000000                 695
a = 10010000, b = 01111000, op = 100000, out = 00001000                 705
a = 10111111, b = 10010010, op = 100010, out = 00101101                 715
a = 11001000, b = 10101010, op = 100101, out = 11101010                 725
a = 11000011, b = 10010100, op = 100110, out = 01010111                 735
a = 10111111, b = 11000101, op = 000010, out = 00000000                 745
a = 11100100, b = 11000001, op = 100110, out = 00100101                 755
a = 11111010, b = 10111100, op = 100101, out = 11111110                 765
a = 11100100, b = 11010011, op = 000011, out = 11111111                 775
a = 00001001, b = 11100110, op = 100101, out = 11101111                 785
a = 00010001, b = 11100001, op = 100110, out = 11110000                 795
Test Pass
$finish called at time : 805 ns : File "C:/Vivado/TP1/TP1.srcs/sim_1/new/ALU_tb.v" Line 72
