TP1.2.sim/sim_1/synth/timing/xsim/simulate.log
Vivado Simulator 2019.2
Time resolution is 1 ps
a = 00000000, b = 00000000, op = 000000, out = xxxxxxxx                   0
a = 01010011, b = 00000111, op = 000000, out = xxxxxxxx                   3
a = 01010011, b = 00000111, op = 000000, out = 0xxxxxx0                   8
a = 01010011, b = 00000111, op = 000000, out = 000xxx00                   8
a = 01010011, b = 00000111, op = 000000, out = 00000000                   8
a = 01001111, b = 00010101, op = 100101, out = 00000000                   9
a = 01010000, b = 01000100, op = 100101, out = 00000000                  15
a = 01010000, b = 01000100, op = 100101, out = 01011010                  17
a = 01010000, b = 01000100, op = 100101, out = 01001010                  17
a = 01010000, b = 01000100, op = 100101, out = 01101010                  17
a = 01010000, b = 01000100, op = 100101, out = 01101011                  17
a = 01010000, b = 01000100, op = 100101, out = 01101111                  17
a = 01010000, b = 01000100, op = 100101, out = 01011111                  17
Error en operacion 100101 en tiempo                   21 ns
a = 01100011, b = 01000000, op = 000010, out = 01011111                  21
a = 01100011, b = 01000000, op = 000010, out = 01011110                  22
a = 01100011, b = 01000000, op = 000010, out = 01010100                  22
Error en operacion 000010 en tiempo                   27 ns
a = 01101101, b = 01001010, op = 100010, out = 01010100                  27
a = 01101101, b = 01001010, op = 100010, out = 01010101                  28
a = 01101101, b = 01001010, op = 100010, out = 01010001                  28
a = 01101101, b = 01001010, op = 100010, out = 01100011                  28
a = 01101101, b = 01001010, op = 100010, out = 01100010                  29
a = 01101101, b = 01001010, op = 100010, out = 00000000                  29
Error en operacion 100010 en tiempo                   33 ns
a = 01101001, b = 01011110, op = 000011, out = 00000000                  33
a = 01101001, b = 01011110, op = 000011, out = 00000001                  35
a = 01101001, b = 01011110, op = 000011, out = 00000101                  35
a = 01101001, b = 01011110, op = 000011, out = 01101111                  35
a = 01101001, b = 01011110, op = 000011, out = 00011111                  35
a = 01101001, b = 01011110, op = 000011, out = 00011101                  35
a = 01101001, b = 01011110, op = 000011, out = 00011111                  35
a = 01101001, b = 01011110, op = 000011, out = 00011011                  35
a = 01101001, b = 01011110, op = 000011, out = 00001011                  36
a = 01101001, b = 01011110, op = 000011, out = 00101011                  36
a = 01101001, b = 01011110, op = 000011, out = 00100011                  36
Error en operacion 000011 en tiempo                   39 ns
a = 01110111, b = 01011010, op = 000011, out = 00100011                  39
a = 01110111, b = 01011010, op = 000011, out = 10100010                  41
a = 01110111, b = 01011010, op = 000011, out = 10000000                  41
a = 01110111, b = 01011010, op = 000011, out = 00000000                  41
a = 01110111, b = 01011010, op = 000011, out = 00000100                  41
a = 01110111, b = 01011010, op = 000011, out = 00110110                  41
a = 01110111, b = 01011010, op = 000011, out = 00110010                  41
a = 01110111, b = 01011010, op = 000011, out = 00000000                  41
Error en operacion 000011 en tiempo                   45 ns
a = 10000011, b = 01010110, op = 100110, out = 00000000                  45
a = 01111111, b = 01010010, op = 100100, out = 00000000                  51
a = 01111111, b = 01010010, op = 100100, out = 10000000                  52
a = 01111111, b = 01010010, op = 100100, out = 10000010                  52
a = 01111111, b = 01010010, op = 100100, out = 10011110                  52
a = 01111111, b = 01010010, op = 100100, out = 10011111                  53
a = 01111111, b = 01010010, op = 100100, out = 10011101                  53
a = 01111111, b = 01010010, op = 100100, out = 10000001                  53
a = 01111111, b = 01010010, op = 100100, out = 10000101                  53
a = 01111111, b = 01010010, op = 100100, out = 11010101                  53
Error en operacion 100100 en tiempo                   57 ns
a = 01111011, b = 10010100, op = 100100, out = 11010101                  57
a = 01111011, b = 10010100, op = 100100, out = 01010101                  58
a = 01111011, b = 10010100, op = 100100, out = 01010001                  58
a = 01111011, b = 10010100, op = 100100, out = 01010101                  58
a = 01111011, b = 10010100, op = 100100, out = 00101101                  58
a = 01111011, b = 10010100, op = 100100, out = 00101100                  59
a = 01111011, b = 10010100, op = 100100, out = 00101000                  59
a = 01111011, b = 10010100, op = 100100, out = 00000000                  59
a = 01111011, b = 10010100, op = 100100, out = 01010010                  59
Error en operacion 100100 en tiempo                   63 ns
a = 10100000, b = 10000011, op = 100000, out = 01010010                  63
a = 10100000, b = 10000011, op = 100000, out = 01010110                  64
a = 10100000, b = 10000011, op = 100000, out = 01010010                  64
a = 10100000, b = 10000011, op = 100000, out = 00010000                  64
Error en operacion 100000 en tiempo                   69 ns
a = 10011100, b = 10001101, op = 100111, out = 00010000                  69
a = 10011100, b = 10001101, op = 100111, out = 10010000                  70
a = 10011100, b = 10001101, op = 100111, out = 10000000                  70
a = 10011100, b = 10001101, op = 100111, out = 10000001                  71
a = 10011100, b = 10001101, op = 100111, out = 10100011                  71
a = 10011100, b = 10001101, op = 100111, out = 10100111                  71
a = 10011100, b = 10001101, op = 100111, out = 11101111                  71
a = 10011100, b = 10001101, op = 100111, out = 11111111                  71
a = 10011100, b = 10001101, op = 100111, out = 11101111                  71
a = 10011100, b = 10001101, op = 100111, out = 11101101                  71
a = 10011100, b = 10001101, op = 100111, out = 11101111                  71
a = 10011100, b = 10001101, op = 100111, out = 11101011                  71
a = 10011100, b = 10001101, op = 100111, out = 10101011                  71
a = 10011100, b = 10001101, op = 100111, out = 00101011                  71
a = 10011100, b = 10001101, op = 100111, out = 00100011                  72
Error en operacion 100111 en tiempo                   75 ns
a = 10011010, b = 10001001, op = 100111, out = 00100011                  75
a = 10011010, b = 10001001, op = 100111, out = 00100010                  77
a = 10011010, b = 10001001, op = 100111, out = 00110010                  77
a = 10011010, b = 10001001, op = 100111, out = 00010010                  77
a = 10011010, b = 10001001, op = 100111, out = 00011010                  77
a = 10011010, b = 10001001, op = 100111, out = 01011010                  77
a = 10011010, b = 10001001, op = 100111, out = 01100010                  77
Error en operacion 100111 en tiempo                   81 ns
a = 10010110, b = 10010111, op = 111111, out = 01100010                  81
a = 10010110, b = 10010111, op = 111111, out = 01100110                  82
a = 10010110, b = 10010111, op = 111111, out = 01100100                  82
Error en operacion 111111 en tiempo                   87 ns
a = 10100100, b = 10000111, op = 000011, out = 01100100                  87
a = 10100100, b = 10000111, op = 000011, out = 01100000                  88
a = 10100100, b = 10000111, op = 000011, out = 01101000                  88
a = 10100100, b = 10000111, op = 000011, out = 01101001                  89
a = 10100100, b = 10000111, op = 000011, out = 01101000                  89
a = 10100100, b = 10000111, op = 000011, out = 00000000                  89
Error en operacion 000011 en tiempo                   93 ns
a = 10111100, b = 10011010, op = 000011, out = 00000000                  93
a = 10111100, b = 10011010, op = 000011, out = 01100000                  94
a = 10111100, b = 10011010, op = 000011, out = 01100001                  95
a = 10111100, b = 10011010, op = 000011, out = 01100011                  95
a = 10111100, b = 10011010, op = 000011, out = 11100011                  95
a = 10111100, b = 10011010, op = 000011, out = 11111111                  95
Error en operacion 000011 en tiempo                   99 ns
a = 11000011, b = 10010110, op = 000011, out = 11111111                  99
a = 10111111, b = 11000000, op = 000010, out = 11111111                 105
a = 11001101, b = 10111100, op = 000010, out = 11111111                 111
a = 11001101, b = 10111100, op = 000010, out = 11111110                 113
a = 11001101, b = 10111100, op = 000010, out = 11111100                 113
a = 11001101, b = 10111100, op = 000010, out = 11100000                 113
a = 11001101, b = 10111100, op = 000010, out = 01100000                 113
a = 11001101, b = 10111100, op = 000010, out = 00100000                 113
a = 11001101, b = 10111100, op = 000010, out = 00000000                 113
Error en operacion 000010 en tiempo                  117 ns
a = 11010111, b = 10111010, op = 000010, out = 00000000                 117
a = 11010011, b = 10110110, op = 100010, out = 00000000                 123
a = 11000010, b = 11011011, op = 100010, out = 00000000                 129
a = 11000010, b = 11011011, op = 100010, out = 10000001                 131
a = 11000010, b = 11011011, op = 100010, out = 10000101                 131
a = 11000010, b = 11011011, op = 100010, out = 11110111                 131
a = 11000010, b = 11011011, op = 100010, out = 01110111                 131
a = 11000010, b = 11011011, op = 100010, out = 00010101                 131
a = 11000010, b = 11011011, op = 100010, out = 00010001                 131
a = 11000010, b = 11011011, op = 100010, out = 00010101                 131
a = 11000010, b = 11011011, op = 100010, out = 00011101                 132
Error en operacion 100010 en tiempo                  135 ns
a = 00000100, b = 11010111, op = 100111, out = 00011101                 135
a = 00000100, b = 11010111, op = 100111, out = 00001101                 137
a = 00000100, b = 11010111, op = 100111, out = 00101111                 137
a = 00000100, b = 11010111, op = 100111, out = 01101111                 137
a = 00000100, b = 11010111, op = 100111, out = 11101111                 137
a = 00000100, b = 11010111, op = 100111, out = 11100111                 138
Error en operacion 100111 en tiempo                  141 ns
a = 00000000, b = 11010011, op = 100100, out = 11100111                 141
a = 00000000, b = 11010011, op = 100100, out = 01100110                 143
a = 00000000, b = 11010011, op = 100100, out = 01100010                 143
a = 00000000, b = 11010011, op = 100100, out = 00101000                 143
Error en operacion 100100 en tiempo                  147 ns
a = 11111100, b = 11011111, op = 100100, out = 00101000                 147
a = 11111100, b = 11011111, op = 100100, out = 00101100                 148
a = 11111100, b = 11011111, op = 100100, out = 00101101                 149
a = 11111100, b = 11011111, op = 100100, out = 00101100                 149
a = 11111100, b = 11011111, op = 100100, out = 00101000                 149
a = 11111100, b = 11011111, op = 100100, out = 01010010                 149
a = 11111100, b = 11011111, op = 100100, out = 00000000                 149
Error en operacion 100100 en tiempo                  153 ns
a = 00001010, b = 11101101, op = 100100, out = 00000000                 153
a = 00001010, b = 11101101, op = 100100, out = 10000000                 154
a = 00001010, b = 11101101, op = 100100, out = 10000100                 154
a = 00001010, b = 11101101, op = 100100, out = 11010100                 154
a = 00001010, b = 11101101, op = 100100, out = 11011100                 154
Error en operacion 100100 en tiempo                  159 ns
a = 11111001, b = 11101001, op = 100000, out = 11011100                 159
a = 11111001, b = 11101001, op = 100000, out = 01011100                 160
a = 11111001, b = 11101001, op = 100000, out = 01011000                 160
a = 11111001, b = 11101001, op = 100000, out = 00001010                 160
a = 11111001, b = 11101001, op = 100000, out = 00001000                 160
Error en operacion 100000 en tiempo                  165 ns
a = 00000011, b = 11110011, op = 100110, out = 00001000                 165
a = 00000011, b = 11110011, op = 100110, out = 10001001                 166
a = 00000011, b = 11110011, op = 100110, out = 11101001                 166
a = 00000011, b = 11110011, op = 100110, out = 11111001                 167
a = 00000011, b = 11110011, op = 100110, out = 01111001                 167
a = 00000011, b = 11110011, op = 100110, out = 01111000                 167
a = 00000011, b = 11110011, op = 100110, out = 01111100                 167
a = 00000011, b = 11110011, op = 100110, out = 00010110                 167
a = 00000011, b = 11110011, op = 100110, out = 00000110                 167
a = 00000011, b = 11110011, op = 100110, out = 00100100                 167
a = 00000011, b = 11110011, op = 100110, out = 00100110                 167
a = 00000011, b = 11110011, op = 100110, out = 00100010                 167
a = 00000011, b = 11110011, op = 100110, out = 01100010                 167
a = 00000011, b = 11110011, op = 100110, out = 11100010                 167
Error en operacion 100110 en tiempo                  171 ns
a = 11111111, b = 11111001, op = 100000, out = 11100010                 171
a = 11111111, b = 11111001, op = 100000, out = 01100010                 173
a = 11111111, b = 11111001, op = 100000, out = 01100110                 173
a = 11111111, b = 11111001, op = 100000, out = 01100010                 173
a = 11111111, b = 11111001, op = 100000, out = 00000000                 173
a = 11111111, b = 11111001, op = 100000, out = 01110000                 173
a = 11111111, b = 11111001, op = 100000, out = 11110000                 173
Error en operacion 100000 en tiempo                  177 ns
a = 00100100, b = 00000111, op = 000010, out = 11110000                 177
a = 00100100, b = 00000111, op = 000010, out = 01110000                 178
a = 00100100, b = 00000111, op = 000010, out = 01110100                 178
a = 00100100, b = 00000111, op = 000010, out = 00001100                 178
a = 00100100, b = 00000111, op = 000010, out = 00000110                 178
a = 00100100, b = 00000111, op = 000010, out = 10000110                 179
a = 00100100, b = 00000111, op = 000010, out = 10000010                 179
a = 00100100, b = 00000111, op = 000010, out = 10000000                 179
a = 00100100, b = 00000111, op = 000010, out = 11110000                 179
a = 00100100, b = 00000111, op = 000010, out = 11100000                 179
a = 00100100, b = 00000111, op = 000010, out = 11110000                 179
a = 00100100, b = 00000111, op = 000010, out = 11010000                 179
a = 00100100, b = 00000111, op = 000010, out = 11110010                 179
a = 00100100, b = 00000111, op = 000010, out = 11110000                 179
a = 00100100, b = 00000111, op = 000010, out = 11110100                 179
a = 00100100, b = 00000111, op = 000010, out = 11110000                 179
a = 00100100, b = 00000111, op = 000010, out = 10110000                 179
a = 00100100, b = 00000111, op = 000010, out = 11110000                 179
a = 00100100, b = 00000111, op = 000010, out = 01110000                 179
a = 00100100, b = 00000111, op = 000010, out = 11110000                 179
a = 00100100, b = 00000111, op = 000010, out = 11111000                 180
a = 00100100, b = 00000111, op = 000010, out = 11110000                 180
a = 00100100, b = 00000111, op = 000010, out = 11111000                 180
Error en operacion 000010 en tiempo                  183 ns
a = 00110000, b = 00000011, op = 100101, out = 11111000                 183
a = 00110000, b = 00000011, op = 100101, out = 11101000                 185
a = 00110000, b = 00000011, op = 100101, out = 11001000                 185
a = 00110000, b = 00000011, op = 100101, out = 01001000                 185
a = 00110000, b = 00000011, op = 100101, out = 01011000                 185
a = 00110000, b = 00000011, op = 100101, out = 00000000                 185
Error en operacion 100101 en tiempo                  189 ns
a = 00101100, b = 11111111, op = 100010, out = 00000000                 189
a = 00101100, b = 11111111, op = 100010, out = 00000100                 190
a = 00101100, b = 11111111, op = 100010, out = 00000101                 191
a = 00101100, b = 11111111, op = 100010, out = 00000001                 191
a = 00101100, b = 11111111, op = 100010, out = 00110011                 191
Error en operacion 100010 en tiempo                  195 ns
a = 00101000, b = 00101010, op = 100010, out = 00110011                 195
a = 00101000, b = 00101010, op = 100010, out = 10110011                 196
a = 00101000, b = 00101010, op = 100010, out = 10110111                 196
a = 00101000, b = 00101010, op = 100010, out = 10101111                 196
a = 00101000, b = 00101010, op = 100010, out = 11111111                 196
a = 00101000, b = 00101010, op = 100010, out = 01111111                 197
a = 00101000, b = 00101010, op = 100010, out = 01111011                 197
a = 00101000, b = 00101010, op = 100010, out = 01001011                 197
a = 00101000, b = 00101010, op = 100010, out = 01011011                 197
a = 00101000, b = 00101010, op = 100010, out = 01001011                 197
a = 00101000, b = 00101010, op = 100010, out = 01011011                 197
a = 00101000, b = 00101010, op = 100010, out = 01111001                 197
a = 00101000, b = 00101010, op = 100010, out = 01111101                 197
a = 00101000, b = 00101010, op = 100010, out = 01111001                 197
a = 00101000, b = 00101010, op = 100010, out = 01111101                 197
a = 00101000, b = 00101010, op = 100010, out = 00111101                 197
a = 00101000, b = 00101010, op = 100010, out = 10111101                 197
a = 00101000, b = 00101010, op = 100010, out = 00111101                 197
a = 00101000, b = 00101010, op = 100010, out = 00101101                 198
a = 00101000, b = 00101010, op = 100010, out = 00100101                 198
a = 00101000, b = 00101010, op = 100010, out = 00101101                 198
Error en operacion 100010 en tiempo                  201 ns
a = 00110110, b = 00011001, op = 111111, out = 00101101                 201
a = 00110110, b = 00011001, op = 111111, out = 00101100                 203
a = 00110110, b = 00011001, op = 111111, out = 00111100                 203
a = 00110110, b = 00011001, op = 111111, out = 00111110                 203
a = 00110110, b = 00011001, op = 111111, out = 00111010                 203
a = 00110110, b = 00011001, op = 111111, out = 00111110                 203
a = 00110110, b = 00011001, op = 111111, out = 01111110                 203
a = 00110110, b = 00011001, op = 111111, out = 11111110                 203
Error en operacion 111111 en tiempo                  207 ns
a = 00110010, b = 00101100, op = 111111, out = 11111110                 207
a = 00110010, b = 00101100, op = 111111, out = 01111110                 209
a = 00110010, b = 00101100, op = 111111, out = 01111010                 209
a = 00110010, b = 00101100, op = 111111, out = 00000000                 209
Error en operacion 111111 en tiempo                  213 ns
a = 01000111, b = 00110110, op = 111111, out = 00000000                 213
a = 01000011, b = 01000100, op = 100111, out = 00000000                 219
a = 01101101, b = 01000000, op = 100111, out = 00000000                 225
a = 01101101, b = 01000000, op = 100111, out = 00000001                 227
a = 01101101, b = 01000000, op = 100111, out = 00010001                 227
a = 01101101, b = 01000000, op = 100111, out = 00010000                 227
a = 01101101, b = 01000000, op = 100111, out = 00111000                 227
a = 01101101, b = 01000000, op = 100111, out = 10111000                 227
Error en operacion 100111 en tiempo                  231 ns
a = 01101001, b = 00110000, op = 100111, out = 10111000                 231
a = 01101001, b = 00110000, op = 100111, out = 10010010                 232
Error en operacion 100111 en tiempo                  237 ns
a = 01100101, b = 01001000, op = 100101, out = 10010010                 237
a = 01100101, b = 01001000, op = 100101, out = 10010110                 238
a = 01100101, b = 01001000, op = 100101, out = 10000110                 238
Error en operacion 100101 en tiempo                  243 ns
a = 01010101, b = 01010110, op = 100101, out = 10000110                 243
a = 01010101, b = 01010110, op = 100101, out = 10000010                 244
a = 01010101, b = 01010110, op = 100101, out = 10001010                 244
a = 01010101, b = 01010110, op = 100101, out = 10010010                 244
a = 01010101, b = 01010110, op = 100101, out = 00010011                 245
a = 01010101, b = 01010110, op = 100101, out = 00010111                 245
a = 01010101, b = 01010110, op = 100101, out = 00100111                 245
a = 01010101, b = 01010110, op = 100101, out = 01101101                 245
Error en operacion 100101 en tiempo                  249 ns
a = 01111010, b = 01101001, op = 100010, out = 01101101                 249
a = 01111010, b = 01101001, op = 100010, out = 01011101                 250
a = 01111010, b = 01101001, op = 100010, out = 01010111                 250
Error en operacion 100010 en tiempo                  255 ns
a = 01110110, b = 01100111, op = 100110, out = 01010111                 255
a = 01110110, b = 01100111, op = 100110, out = 01010110                 256
a = 01110110, b = 01100111, op = 100110, out = 01010111                 256
a = 01110110, b = 01100111, op = 100110, out = 01010011                 256
a = 01110110, b = 01100111, op = 100110, out = 01111011                 256
a = 01110110, b = 01100111, op = 100110, out = 11111011                 257
a = 01110110, b = 01100111, op = 100110, out = 11111111                 257
a = 01110110, b = 01100111, op = 100110, out = 11110101                 257
a = 01110110, b = 01100111, op = 100110, out = 11100101                 257
a = 01110110, b = 01100111, op = 100110, out = 11110101                 257
a = 01110110, b = 01100111, op = 100110, out = 11010111                 257
a = 01110110, b = 01100111, op = 100110, out = 11110101                 257
a = 01110110, b = 01100111, op = 100110, out = 11010111                 257
a = 01110110, b = 01100111, op = 100110, out = 11010011                 257
a = 01110110, b = 01100111, op = 100110, out = 11010111                 257
a = 01110110, b = 01100111, op = 100110, out = 11010011                 257
a = 01110110, b = 01100111, op = 100110, out = 10010011                 257
a = 01110110, b = 01100111, op = 100110, out = 00010011                 257
a = 01110110, b = 01100111, op = 100110, out = 00000011                 258
a = 01110110, b = 01100111, op = 100110, out = 00010011                 258
a = 01110110, b = 01100111, op = 100110, out = 00010001                 258
a = 01110110, b = 01100111, op = 100110, out = 00011001                 258
a = 01110110, b = 01100111, op = 100110, out = 00010001                 258
a = 01110110, b = 01100111, op = 100110, out = 00011001                 258
a = 01110110, b = 01100111, op = 100110, out = 00010001                 258
Error en operacion 100110 en tiempo                  261 ns
a = 10000000, b = 01100011, op = 100110, out = 00010001                 261
a = 10000000, b = 01100011, op = 100110, out = 10010000                 263
a = 10000000, b = 01100011, op = 100110, out = 10000000                 263
a = 10000000, b = 01100011, op = 100110, out = 10000001                 263
a = 10000000, b = 01100011, op = 100110, out = 10010001                 263
a = 10000000, b = 01100011, op = 100110, out = 00010001                 263
a = 01101111, b = 01110001, op = 100000, out = 00010001                 267
a = 01101111, b = 01110001, op = 100000, out = 10010001                 268
a = 01101111, b = 01110001, op = 100000, out = 10010101                 268
a = 01101111, b = 01110001, op = 100000, out = 10010001                 268
a = 01101111, b = 01110001, op = 100000, out = 11100011                 268
Error en operacion 100000 en tiempo                  273 ns
a = 10011010, b = 01101101, op = 100100, out = 11100011                 273
a = 10011010, b = 01101101, op = 100100, out = 01100010                 274
a = 10011010, b = 01101101, op = 100100, out = 01100110                 274
a = 10011010, b = 01101101, op = 100100, out = 00001100                 274
a = 10011010, b = 01101101, op = 100100, out = 00011110                 274
a = 10011010, b = 01101101, op = 100100, out = 00011111                 275
a = 10011010, b = 01101101, op = 100100, out = 00011011                 275
a = 10011010, b = 01101101, op = 100100, out = 00000001                 275
a = 10011010, b = 01101101, op = 100100, out = 10000001                 275
a = 10011010, b = 01101101, op = 100100, out = 11100001                 275
a = 10011010, b = 01101101, op = 100100, out = 11100000                 275
a = 10011010, b = 01101101, op = 100100, out = 11110000                 275
a = 10011010, b = 01101101, op = 100100, out = 11100000                 275
a = 10011010, b = 01101101, op = 100100, out = 11000010                 275
a = 10011010, b = 01101101, op = 100100, out = 11100000                 275
a = 10011010, b = 01101101, op = 100100, out = 11100010                 275
a = 10011010, b = 01101101, op = 100100, out = 11100110                 275
a = 10011010, b = 01101101, op = 100100, out = 11100010                 275
a = 10011010, b = 01101101, op = 100100, out = 11100110                 275
a = 10011010, b = 01101101, op = 100100, out = 10100110                 275
a = 10011010, b = 01101101, op = 100100, out = 11100110                 275
a = 10011010, b = 01101101, op = 100100, out = 01100110                 275
a = 10011010, b = 01101101, op = 100100, out = 11100110                 275
a = 10011010, b = 01101101, op = 100100, out = 11110110                 276
a = 10011010, b = 01101101, op = 100100, out = 11110100                 276
a = 10011010, b = 01101101, op = 100100, out = 11111100                 276
a = 10011010, b = 01101101, op = 100100, out = 11110100                 276
a = 10011010, b = 01101101, op = 100100, out = 11111100                 276
a = 10011010, b = 01101101, op = 100100, out = 11101100                 276
a = 10011010, b = 01101101, op = 100100, out = 11101000                 276
a = 10011010, b = 01101101, op = 100100, out = 11100000                 276
Error en operacion 100100 en tiempo                  279 ns
a = 10010110, b = 10000101, op = 100111, out = 11100000                 279
a = 10010110, b = 10000101, op = 100111, out = 01100000                 281
a = 10010110, b = 10000101, op = 100111, out = 00100000                 281
a = 10010110, b = 10000101, op = 100111, out = 00000000                 281
a = 10010110, b = 10000101, op = 100111, out = 00001000                 281
Error en operacion 100111 en tiempo                  285 ns
a = 10010010, b = 10001100, op = 100111, out = 00001000                 285
a = 10010010, b = 10001100, op = 100111, out = 10001000                 286
a = 10010010, b = 10001100, op = 100111, out = 10001100                 286
a = 10010010, b = 10001100, op = 100111, out = 10000100                 286
a = 10010010, b = 10001100, op = 100111, out = 10000101                 287
a = 10010010, b = 10001100, op = 100111, out = 10010111                 287
a = 10010010, b = 10001100, op = 100111, out = 00010111                 287
a = 10010010, b = 10001100, op = 100111, out = 00010110                 287
a = 10010010, b = 10001100, op = 100111, out = 00010010                 287
a = 10010010, b = 10001100, op = 100111, out = 00000000                 287
a = 10010010, b = 10001100, op = 100111, out = 01101000                 287
Error en operacion 100111 en tiempo                  291 ns
a = 10100101, b = 10011010, op = 100101, out = 01101000                 291
a = 10100101, b = 10011010, op = 100101, out = 01101001                 292
a = 10100101, b = 10011010, op = 100101, out = 01100001                 292
Error en operacion 100101 en tiempo                  297 ns
a = 10100110, b = 10010110, op = 111111, out = 01100001                 297
a = 10100110, b = 10010110, op = 111111, out = 01100000                 298
a = 10100110, b = 10010110, op = 111111, out = 01010010                 298
a = 10100110, b = 10010110, op = 111111, out = 01000000                 298
a = 10100110, b = 10010110, op = 111111, out = 11000000                 299
a = 10100110, b = 10010110, op = 111111, out = 11101000                 299
a = 10100110, b = 10010110, op = 111111, out = 11101001                 299
a = 10100110, b = 10010110, op = 111111, out = 11101101                 299
a = 10100110, b = 10010110, op = 111111, out = 10111111                 299
Error en operacion 111111 en tiempo                  303 ns
a = 10110000, b = 10100000, op = 100101, out = 10111111                 303
a = 10110000, b = 10100000, op = 100101, out = 10111110                 304
a = 10110000, b = 10100000, op = 100101, out = 10110110                 304
a = 10110000, b = 10100000, op = 100101, out = 10000110                 305
a = 10110000, b = 10100000, op = 100101, out = 00000110                 305
a = 10110000, b = 10100000, op = 100101, out = 00000010                 305
a = 10110000, b = 10100000, op = 100101, out = 00000000                 305
Error en operacion 100101 en tiempo                  309 ns
a = 10101100, b = 10011100, op = 111111, out = 00000000                 309
a = 10101100, b = 10011100, op = 111111, out = 00000100                 311
a = 10101100, b = 10011100, op = 111111, out = 00010110                 311
a = 10101100, b = 10011100, op = 111111, out = 00000110                 311
a = 10101100, b = 10011100, op = 111111, out = 00100110                 311
a = 10101100, b = 10011100, op = 111111, out = 00101110                 311
a = 10101100, b = 10011100, op = 111111, out = 10101110                 311
a = 10101100, b = 10011100, op = 111111, out = 10101010                 311
a = 10101100, b = 10011100, op = 111111, out = 10110000                 311
Error en operacion 111111 en tiempo                  315 ns
a = 11000101, b = 10011101, op = 000011, out = 10110000                 315
a = 11000101, b = 10011101, op = 000011, out = 10110100                 316
a = 11000101, b = 10011101, op = 000011, out = 10101100                 316
a = 11000101, b = 10011101, op = 000011, out = 10111100                 316
a = 11000101, b = 10011101, op = 000011, out = 10001100                 317
a = 11000101, b = 10011101, op = 000011, out = 00001100                 317
a = 11000101, b = 10011101, op = 000011, out = 00001000                 317
a = 11000101, b = 10011101, op = 000011, out = 00000000                 317
Error en operacion 000011 en tiempo                  321 ns
a = 11010011, b = 10110000, op = 100000, out = 00000000                 321
a = 11010011, b = 10110000, op = 100000, out = 01100000                 322
a = 11010011, b = 10110000, op = 100000, out = 01100001                 323
a = 11010011, b = 10110000, op = 100000, out = 01100011                 323
a = 11010011, b = 10110000, op = 100000, out = 11100011                 323
a = 11010011, b = 10110000, op = 100000, out = 11111111                 323
Error en operacion 100000 en tiempo                  327 ns
a = 11011001, b = 11001001, op = 100000, out = 11111111                 327
a = 11011001, b = 11001001, op = 100000, out = 10011111                 328
a = 11011001, b = 11001001, op = 100000, out = 10011110                 329
a = 11011001, b = 11001001, op = 100000, out = 10011111                 329
a = 11011001, b = 11001001, op = 100000, out = 10011101                 329
a = 11011001, b = 11001001, op = 100000, out = 10000001                 329
a = 11011001, b = 11001001, op = 100000, out = 11110011                 329
a = 11011001, b = 11001001, op = 100000, out = 01110010                 329
a = 11011001, b = 11001001, op = 100000, out = 01110011                 329
a = 11011001, b = 11001001, op = 100000, out = 01001001                 329
a = 11011001, b = 11001001, op = 100000, out = 01011001                 329
a = 11011001, b = 11001001, op = 100000, out = 01001001                 329
a = 11011001, b = 11001001, op = 100000, out = 01101011                 329
a = 11011001, b = 11001001, op = 100000, out = 01101001                 329
a = 11011001, b = 11001001, op = 100000, out = 01101101                 329
a = 11011001, b = 11001001, op = 100000, out = 01101001                 329
a = 11011001, b = 11001001, op = 100000, out = 01101101                 329
a = 11011001, b = 11001001, op = 100000, out = 00101101                 329
a = 11011001, b = 11001001, op = 100000, out = 11101101                 329
a = 11011001, b = 11001001, op = 100000, out = 11111101                 330
a = 11011001, b = 11001001, op = 100000, out = 11101101                 330
a = 11011001, b = 11001001, op = 100000, out = 11001111                 330
a = 11011001, b = 11001001, op = 100000, out = 11000111                 330
a = 11011001, b = 11001001, op = 100000, out = 11000011                 330
a = 11011001, b = 11001001, op = 100000, out = 00000011                 330
a = 11011001, b = 11001001, op = 100000, out = 10000011                 330
Error en operacion 100000 en tiempo                  333 ns
a = 11010101, b = 11000101, op = 000010, out = 10000011                 333
a = 11010101, b = 11000101, op = 000010, out = 10010011                 335
a = 11010101, b = 11000101, op = 000010, out = 10010010                 335
a = 11010101, b = 11000101, op = 000010, out = 10000010                 335
a = 11010101, b = 11000101, op = 000010, out = 10100010                 335
a = 11010101, b = 11000101, op = 000010, out = 10110010                 336
a = 11010101, b = 11000101, op = 000010, out = 10100010                 336
a = 11010101, b = 11000101, op = 000010, out = 10101010                 336
a = 11010101, b = 11000101, op = 000010, out = 10100010                 336
Error en operacion 000010 en tiempo                  339 ns
a = 11010001, b = 11000110, op = 000010, out = 10100010                 339
a = 11010001, b = 11000110, op = 000010, out = 00100010                 341
a = 11010001, b = 11000110, op = 000010, out = 00110010                 341
a = 11010001, b = 11000110, op = 000010, out = 00010010                 341
a = 11010001, b = 11000110, op = 000010, out = 00011010                 341
a = 11010001, b = 11000110, op = 000010, out = 00101010                 341
a = 11010001, b = 11000110, op = 000010, out = 00000000                 341
Error en operacion 000010 en tiempo                  345 ns
a = 11011111, b = 11000010, op = 000010, out = 00000000                 345
a = 11101001, b = 11001100, op = 100111, out = 00000000                 351
a = 11110101, b = 11001000, op = 100010, out = 00000000                 357
a = 11110101, b = 11001000, op = 100010, out = 00010010                 359
Error en operacion 100010 en tiempo                  363 ns
a = 11110001, b = 11101101, op = 111111, out = 00010010                 363
a = 11110001, b = 11101101, op = 111111, out = 00000010                 364
a = 11110001, b = 11101101, op = 111111, out = 00000011                 365
a = 11110001, b = 11101101, op = 111111, out = 00000111                 365
a = 11110001, b = 11101101, op = 111111, out = 00100101                 365
a = 11110001, b = 11101101, op = 111111, out = 00110101                 365
a = 11110001, b = 11101101, op = 111111, out = 00110001                 365
a = 11110001, b = 11101101, op = 111111, out = 00110101                 365
a = 11110001, b = 11101101, op = 111111, out = 00100101                 366
a = 11110001, b = 11101101, op = 111111, out = 00101101                 366
Error en operacion 111111 en tiempo                  369 ns
a = 00010110, b = 11111001, op = 000011, out = 00101101                 369
a = 00010110, b = 11111001, op = 000011, out = 00101100                 371
a = 00010110, b = 11111001, op = 000011, out = 00101000                 371
a = 00010110, b = 11111001, op = 000011, out = 00000000                 371
Error en operacion 000011 en tiempo                  375 ns
a = 00010010, b = 11110101, op = 100100, out = 00000000                 375
a = 00010010, b = 11110101, op = 100100, out = 01100000                 376
a = 00010010, b = 11110101, op = 100100, out = 11100001                 377
a = 00010010, b = 11110101, op = 100100, out = 10100001                 377
a = 00010010, b = 11110101, op = 100100, out = 10000001                 377
a = 00010010, b = 11110101, op = 100100, out = 00000001                 377
a = 00010010, b = 11110101, op = 100100, out = 00000101                 377
a = 00010010, b = 11110101, op = 100100, out = 01101111                 377
a = 00010010, b = 11110101, op = 100100, out = 01101110                 377
a = 00010010, b = 11110101, op = 100100, out = 01101010                 377
a = 00010010, b = 11110101, op = 100100, out = 00000000                 377
a = 00000010, b = 11110001, op = 100100, out = 00000000                 381
a = 00000010, b = 11110001, op = 100100, out = 00010000                 383
Error en operacion 100100 en tiempo                  387 ns
a = 11111110, b = 11111111, op = 000010, out = 00010000                 387
a = 11111110, b = 11111111, op = 000010, out = 00000000                 388
