TP1.2.sim/sim_1/synth/timing/xsim/simulate.log
Vivado Simulator 2019.2
Time resolution is 1 ps
switch = xxxxxxxx, botones = xxx, leds = xxxxxxxx                   0
switch = xxxxxxxx, botones = xxx, leds = 0xxxxxx0                   5
switch = xxxxxxxx, botones = xxx, leds = 00000000                   5
switch = 11100101, botones = 001, leds = 00000000                  60
switch = 11101111, botones = 010, leds = 00000000                 100
switch = 00100111, botones = 100, leds = 00000000                 140
switch = 00100111, botones = 000, leds = 00000000                 180
switch = 00100111, botones = 000, leds = 00010000                 188
switch = 01000000, botones = 001, leds = 00010000                 220
switch = 00111110, botones = 010, leds = 00010000                 260
switch = 00000010, botones = 100, leds = 00010000                 300
switch = 00000010, botones = 000, leds = 00010000                 340
switch = 00000010, botones = 000, leds = 00000000                 348
switch = 10100010, botones = 001, leds = 00000000                 380
switch = 10101100, botones = 010, leds = 00000000                 420
switch = 00100110, botones = 100, leds = 00000000                 460
switch = 00100110, botones = 000, leds = 00000000                 500
switch = 00100110, botones = 000, leds = 00001110                 508
switch = 00100111, botones = 001, leds = 00001110                 540
switch = 00001101, botones = 010, leds = 00001110                 580
switch = 00000011, botones = 100, leds = 00001110                 620
switch = 00000011, botones = 000, leds = 00001110                 660
switch = 00000011, botones = 000, leds = 00000000                 668
switch = 01101100, botones = 001, leds = 00000000                 700
switch = 01111011, botones = 010, leds = 00000000                 740
switch = 00100110, botones = 100, leds = 00000000                 780
switch = 00100110, botones = 000, leds = 00000000                 820
switch = 00100110, botones = 000, leds = 00000001                 828
switch = 00100110, botones = 000, leds = 00010111                 828
switch = 11000111, botones = 001, leds = 00010111                 860
switch = 11000000, botones = 010, leds = 00010111                 900
switch = 00111111, botones = 100, leds = 00010111                 940
switch = 00111111, botones = 000, leds = 00010111                 980
switch = 00111111, botones = 000, leds = 00010110                 988
switch = 00111111, botones = 000, leds = 00000000                 988
