TP1.2.sim/sim_1/synth/timing/xsim/simulate.log
Vivado Simulator 2019.2
Time resolution is 1 ps
a = 00000000, b = 00000000, op = 000000, out = xxxxxxxx                   0
a = 11011101, b = 10100100, op = 100010, out = xxxxxxxx                   4
Error en operacion 100010 en tiempo                    8 ns
a = 11011101, b = 10100100, op = 100010, out = 0xxxxxx0                   8
Error en operacion 100010 en tiempo                    8 ns
a = 11011101, b = 10100100, op = 100010, out = 000xxx00                   8
Error en operacion 100010 en tiempo                    8 ns
a = 11011101, b = 10100100, op = 100010, out = 00000000                   8
Error en operacion 100010 en tiempo                   12 ns
a = 11011101, b = 10100100, op = 100010, out = 00010010                  12
Error en operacion 100010 en tiempo                   12 ns
a = 11011101, b = 10100100, op = 100010, out = 00110010                  12
Error en operacion 100010 en tiempo                   12 ns
a = 11011101, b = 10100100, op = 100010, out = 00111010                  12
Error en operacion 100010 en tiempo                   12 ns
a = 11011101, b = 10100100, op = 100010, out = 10111010                  12
a = 11101111, b = 10110000, op = 000011, out = 10111010                  12
Error en operacion 000011 en tiempo                   12 ns
a = 11101111, b = 10110000, op = 000011, out = 10111011                  12
Error en operacion 000011 en tiempo                   12 ns
a = 11101111, b = 10110000, op = 000011, out = 10101011                  12
Error en operacion 000011 en tiempo                   12 ns
a = 11101111, b = 10110000, op = 000011, out = 10111011                  12
Error en operacion 000011 en tiempo                   12 ns
a = 11101111, b = 10110000, op = 000011, out = 10011011                  12
Error en operacion 000011 en tiempo                   12 ns
a = 11101111, b = 10110000, op = 000011, out = 10111001                  12
Error en operacion 000011 en tiempo                   12 ns
a = 11101111, b = 10110000, op = 000011, out = 10111101                  12
Error en operacion 000011 en tiempo                   12 ns
a = 11101111, b = 10110000, op = 000011, out = 10111001                  12
Error en operacion 000011 en tiempo                   12 ns
a = 11101111, b = 10110000, op = 000011, out = 11111001                  12
Error en operacion 000011 en tiempo                   12 ns
a = 11101111, b = 10110000, op = 000011, out = 00111001                  12
Error en operacion 000011 en tiempo                   12 ns
a = 11101111, b = 10110000, op = 000011, out = 10111001                  12
Error en operacion 000011 en tiempo                   12 ns
a = 11101111, b = 10110000, op = 000011, out = 00111001                  12
Error en operacion 000011 en tiempo                   13 ns
a = 11101111, b = 10110000, op = 000011, out = 00110001                  13
Error en operacion 000011 en tiempo                   13 ns
a = 11101111, b = 10110000, op = 000011, out = 00111001                  13
Error en operacion 000011 en tiempo                   20 ns
a = 11101111, b = 10110000, op = 000011, out = 00011001                  20
Error en operacion 000011 en tiempo                   20 ns
a = 11101111, b = 10110000, op = 000011, out = 00011000                  20
Error en operacion 000011 en tiempo                   20 ns
a = 11101111, b = 10110000, op = 000011, out = 01011000                  20
Error en operacion 000011 en tiempo                   20 ns
a = 11101111, b = 10110000, op = 000011, out = 00000000                  20
Error en operacion 000011 en tiempo                   20 ns
a = 11101111, b = 10110000, op = 000011, out = 00000001                  20
Error en operacion 000011 en tiempo                   20 ns
a = 11101111, b = 10110000, op = 000011, out = 00000111                  20
a = 11011011, b = 10001111, op = 100000, out = 00000111                  20
Error en operacion 100000 en tiempo                   20 ns
a = 11011011, b = 10001111, op = 100000, out = 01011111                  20
Error en operacion 100000 en tiempo                   20 ns
a = 11011011, b = 10001111, op = 100000, out = 11011111                  20
Error en operacion 100000 en tiempo                   20 ns
a = 11011011, b = 10001111, op = 100000, out = 11111111                  20
Error en operacion 100000 en tiempo                   27 ns
a = 11011011, b = 10001111, op = 100000, out = 10011111                  27
Error en operacion 100000 en tiempo                   28 ns
a = 11011011, b = 10001111, op = 100000, out = 10011101                  28
Error en operacion 100000 en tiempo                   28 ns
a = 11011011, b = 10001111, op = 100000, out = 10000001                  28
Error en operacion 100000 en tiempo                   28 ns
a = 11011011, b = 10001111, op = 100000, out = 10000101                  28
a = 11011011, b = 11001010, op = 000011, out = 10000101                  28
Error en operacion 000011 en tiempo                   28 ns
a = 11011011, b = 11001010, op = 000011, out = 11011111                  28
Error en operacion 000011 en tiempo                   28 ns
a = 11011011, b = 11001010, op = 000011, out = 01011111                  28
Error en operacion 000011 en tiempo                   28 ns
a = 11011011, b = 11001010, op = 000011, out = 01011110                  28
Error en operacion 000011 en tiempo                   28 ns
a = 11011011, b = 11001010, op = 000011, out = 01010100                  28
Error en operacion 000011 en tiempo                   28 ns
a = 11011011, b = 11001010, op = 000011, out = 01000100                  28
Error en operacion 000011 en tiempo                   28 ns
a = 11011011, b = 11001010, op = 000011, out = 01010100                  28
Error en operacion 000011 en tiempo                   28 ns
a = 11011011, b = 11001010, op = 000011, out = 01000100                  28
Error en operacion 000011 en tiempo                   28 ns
a = 11011011, b = 11001010, op = 000011, out = 01100110                  28
Error en operacion 000011 en tiempo                   28 ns
a = 11011011, b = 11001010, op = 000011, out = 01000110                  28
Error en operacion 000011 en tiempo                   28 ns
a = 11011011, b = 11001010, op = 000011, out = 01100100                  28
Error en operacion 000011 en tiempo                   28 ns
a = 11011011, b = 11001010, op = 000011, out = 01100000                  28
Error en operacion 000011 en tiempo                   28 ns
a = 11011011, b = 11001010, op = 000011, out = 01100100                  28
Error en operacion 000011 en tiempo                   28 ns
a = 11011011, b = 11001010, op = 000011, out = 00100100                  28
Error en operacion 000011 en tiempo                   28 ns
a = 11011011, b = 11001010, op = 000011, out = 11100100                  28
Error en operacion 000011 en tiempo                   29 ns
a = 11011011, b = 11001010, op = 000011, out = 11110100                  29
Error en operacion 000011 en tiempo                   29 ns
a = 11011011, b = 11001010, op = 000011, out = 11100100                  29
Error en operacion 000011 en tiempo                   29 ns
a = 11011011, b = 11001010, op = 000011, out = 11100110                  29
Error en operacion 000011 en tiempo                   29 ns
a = 11011011, b = 11001010, op = 000011, out = 11101110                  29
Error en operacion 000011 en tiempo                   29 ns
a = 11011011, b = 11001010, op = 000011, out = 11101010                  29
Error en operacion 000011 en tiempo                   29 ns
a = 11011011, b = 11001010, op = 000011, out = 01101010                  29
Error en operacion 000011 en tiempo                   36 ns
a = 11011011, b = 11001010, op = 000011, out = 00000000                  36
Error en operacion 000011 en tiempo                   36 ns
a = 11011011, b = 11001010, op = 000011, out = 00000001                  36
a = 11100111, b = 10111000, op = 100110, out = 00000001                  36
Error en operacion 100110 en tiempo                   36 ns
a = 11100111, b = 10111000, op = 100110, out = 00000011                  36
Error en operacion 100110 en tiempo                   36 ns
a = 11100111, b = 10111000, op = 100110, out = 00011111                  36
Error en operacion 100110 en tiempo                   36 ns
a = 11100111, b = 10111000, op = 100110, out = 10011111                  36
Error en operacion 100110 en tiempo                   36 ns
a = 11100111, b = 10111000, op = 100110, out = 11011111                  36
Error en operacion 100110 en tiempo                   36 ns
a = 11100111, b = 10111000, op = 100110, out = 11111111                  36
Error en operacion 100110 en tiempo                   43 ns
a = 11100111, b = 10111000, op = 100110, out = 10011111                  43
Error en operacion 100110 en tiempo                   44 ns
a = 11100111, b = 10111000, op = 100110, out = 10011101                  44
Error en operacion 100110 en tiempo                   44 ns
a = 11100111, b = 10111000, op = 100110, out = 00011101                  44
Error en operacion 100110 en tiempo                   44 ns
a = 11100111, b = 10111000, op = 100110, out = 00000001                  44
a = 11100111, b = 11000100, op = 100010, out = 00000001                  44
Error en operacion 100010 en tiempo                   44 ns
a = 11100111, b = 11000100, op = 100010, out = 00000101                  44
Error en operacion 100010 en tiempo                   44 ns
a = 11100111, b = 11000100, op = 100010, out = 01011111                  44
Error en operacion 100010 en tiempo                   51 ns
a = 11100111, b = 11000100, op = 100010, out = 01011011                  51
a = 11100111, b = 11000100, op = 100010, out = 00100011                  51
Error en operacion 100010 en tiempo                   52 ns
a = 11100111, b = 11000100, op = 100010, out = 00100010                  52
a = 11100111, b = 11000100, op = 100010, out = 00100011                  52
Error en operacion 100010 en tiempo                   52 ns
a = 11100111, b = 11000100, op = 100010, out = 00011001                  52
a = 11010011, b = 10110110, op = 100110, out = 00011001                  52
Error en operacion 100110 en tiempo                   52 ns
a = 11010011, b = 10110110, op = 100110, out = 00011101                  52
Error en operacion 100110 en tiempo                   52 ns
a = 11010011, b = 10110110, op = 100110, out = 00101111                  52
Error en operacion 100110 en tiempo                   52 ns
a = 11010011, b = 10110110, op = 100110, out = 00111111                  52
Error en operacion 100110 en tiempo                   52 ns
a = 11010011, b = 10110110, op = 100110, out = 00011111                  52
Error en operacion 100110 en tiempo                   52 ns
a = 11010011, b = 10110110, op = 100110, out = 00011011                  52
Error en operacion 100110 en tiempo                   53 ns
a = 11010011, b = 10110110, op = 100110, out = 00001011                  53
Error en operacion 100110 en tiempo                   53 ns
a = 11010011, b = 10110110, op = 100110, out = 00101011                  53
Error en operacion 100110 en tiempo                   53 ns
a = 11010011, b = 10110110, op = 100110, out = 00100011                  53
Error en operacion 100110 en tiempo                   60 ns
a = 11010011, b = 10110110, op = 100110, out = 00100010                  60
Error en operacion 100110 en tiempo                   60 ns
a = 11010011, b = 10110110, op = 100110, out = 01100010                  60
Error en operacion 100110 en tiempo                   60 ns
a = 11010011, b = 10110110, op = 100110, out = 00000000                  60
Error en operacion 100110 en tiempo                   60 ns
a = 11010011, b = 10110110, op = 100110, out = 00000001                  60
a = 11100101, b = 11000010, op = 100000, out = 00000001                  60
Error en operacion 100000 en tiempo                   60 ns
a = 11100101, b = 11000010, op = 100000, out = 00000101                  60
Error en operacion 100000 en tiempo                   60 ns
a = 11100101, b = 11000010, op = 100000, out = 01100101                  60
Error en operacion 100000 en tiempo                   67 ns
a = 11100101, b = 11000010, op = 100000, out = 01100001                  67
Error en operacion 100000 en tiempo                   67 ns
a = 11100101, b = 11000010, op = 100000, out = 01100101                  67
Error en operacion 100000 en tiempo                   67 ns
a = 11100101, b = 11000010, op = 100000, out = 00100111                  67
Error en operacion 100000 en tiempo                   68 ns
a = 11100101, b = 11000010, op = 100000, out = 00100110                  68
Error en operacion 100000 en tiempo                   68 ns
a = 11100101, b = 11000010, op = 100000, out = 00100111                  68
Error en operacion 100000 en tiempo                   68 ns
a = 11100101, b = 11000010, op = 100000, out = 00100011                  68
Error en operacion 100000 en tiempo                   68 ns
a = 11100101, b = 11000010, op = 100000, out = 00011001                  68
a = 11011111, b = 11000110, op = 100010, out = 00011001                  68
Error en operacion 100010 en tiempo                   68 ns
a = 11011111, b = 11000110, op = 100010, out = 01100011                  68
Error en operacion 100010 en tiempo                   68 ns
a = 11011111, b = 11000110, op = 100010, out = 01110011                  68
Error en operacion 100010 en tiempo                   68 ns
a = 11011111, b = 11000110, op = 100010, out = 01100011                  68
Error en operacion 100010 en tiempo                   68 ns
a = 11011111, b = 11000110, op = 100010, out = 01110011                  68
Error en operacion 100010 en tiempo                   68 ns
a = 11011111, b = 11000110, op = 100010, out = 01010001                  68
Error en operacion 100010 en tiempo                   68 ns
a = 11011111, b = 11000110, op = 100010, out = 01110011                  68
Error en operacion 100010 en tiempo                   68 ns
a = 11011111, b = 11000110, op = 100010, out = 01110111                  68
Error en operacion 100010 en tiempo                   68 ns
a = 11011111, b = 11000110, op = 100010, out = 01110011                  68
Error en operacion 100010 en tiempo                   68 ns
a = 11011111, b = 11000110, op = 100010, out = 01110111                  68
Error en operacion 100010 en tiempo                   68 ns
a = 11011111, b = 11000110, op = 100010, out = 00110111                  68
Error en operacion 100010 en tiempo                   68 ns
a = 11011111, b = 11000110, op = 100010, out = 10110111                  68
Error en operacion 100010 en tiempo                   69 ns
a = 11011111, b = 11000110, op = 100010, out = 10100111                  69
Error en operacion 100010 en tiempo                   69 ns
a = 11011111, b = 11000110, op = 100010, out = 10101111                  69
Error en operacion 100010 en tiempo                   69 ns
a = 11011111, b = 11000110, op = 100010, out = 10100111                  69
Error en operacion 100010 en tiempo                   76 ns
a = 11011111, b = 11000110, op = 100010, out = 10100101                  76
Error en operacion 100010 en tiempo                   76 ns
a = 11011111, b = 11000110, op = 100010, out = 10100001                  76
Error en operacion 100010 en tiempo                   76 ns
a = 11011111, b = 11000110, op = 100010, out = 10110001                  76
Error en operacion 100010 en tiempo                   76 ns
a = 11011111, b = 11000110, op = 100010, out = 10010001                  76
Error en operacion 100010 en tiempo                   76 ns
a = 11011111, b = 11000110, op = 100010, out = 10011001                  76
Error en operacion 100010 en tiempo                   76 ns
a = 11011111, b = 11000110, op = 100010, out = 11011001                  76
a = 11011110, b = 11100101, op = 100110, out = 11011001                  76
Error en operacion 100110 en tiempo                   76 ns
a = 11011110, b = 11100101, op = 100110, out = 11001001                  76
Error en operacion 100110 en tiempo                   76 ns
a = 11011110, b = 11100101, op = 100110, out = 11011001                  76
Error en operacion 100110 en tiempo                   76 ns
a = 11011110, b = 11100101, op = 100110, out = 11111011                  76
Error en operacion 100110 en tiempo                   76 ns
a = 11011110, b = 11100101, op = 100110, out = 11011001                  76
Error en operacion 100110 en tiempo                   76 ns
a = 11011110, b = 11100101, op = 100110, out = 11011101                  76
Error en operacion 100110 en tiempo                   76 ns
a = 11011110, b = 11100101, op = 100110, out = 11011001                  76
Error en operacion 100110 en tiempo                   76 ns
a = 11011110, b = 11100101, op = 100110, out = 10011001                  76
Error en operacion 100110 en tiempo                   76 ns
a = 11011110, b = 11100101, op = 100110, out = 00011001                  76
Error en operacion 100110 en tiempo                   77 ns
a = 11011110, b = 11100101, op = 100110, out = 00010001                  77
Error en operacion 100110 en tiempo                   77 ns
a = 11011110, b = 11100101, op = 100110, out = 00011001                  77
Error en operacion 100110 en tiempo                   84 ns
a = 11011110, b = 11100101, op = 100110, out = 00011000                  84
Error en operacion 100110 en tiempo                   84 ns
a = 11011110, b = 11100101, op = 100110, out = 00000000                  84
Error en operacion 100110 en tiempo                   84 ns
a = 11011110, b = 11100101, op = 100110, out = 00000001                  84
a = 11110100, b = 11100011, op = 100111, out = 00000001                  84
Error en operacion 100111 en tiempo                   84 ns
a = 11110100, b = 11100011, op = 100111, out = 00111011                  84
Error en operacion 100111 en tiempo                   91 ns
a = 11110100, b = 11100011, op = 100111, out = 00111111                  91
Error en operacion 100111 en tiempo                   91 ns
a = 11110100, b = 11100011, op = 100111, out = 00010101                  91
Error en operacion 100111 en tiempo                   91 ns
a = 11110100, b = 11100011, op = 100111, out = 00010111                  91
Error en operacion 100111 en tiempo                   92 ns
a = 11110100, b = 11100011, op = 100111, out = 00010011                  92
Error en operacion 100111 en tiempo                   92 ns
a = 11110100, b = 11100011, op = 100111, out = 00001001                  92
a = 11110100, b = 11100011, op = 100111, out = 00001000                  92
a = 00011100, b = 11010000, op = 100110, out = 00001000                  92
Error en operacion 100110 en tiempo                   99 ns
a = 00011100, b = 11010000, op = 100110, out = 00001001                  99
Error en operacion 100110 en tiempo                   99 ns
a = 00011100, b = 11010000, op = 100110, out = 00000001                  99
Error en operacion 100110 en tiempo                   99 ns
a = 00011100, b = 11010000, op = 100110, out = 00100011                  99
Error en operacion 100110 en tiempo                  100 ns
a = 00011100, b = 11010000, op = 100110, out = 00100111                 100
Error en operacion 100110 en tiempo                  100 ns
a = 00011100, b = 11010000, op = 100110, out = 01001101                 100
Error en operacion 100110 en tiempo                  100 ns
a = 00011100, b = 11010000, op = 100110, out = 01001100                 100
a = 00001010, b = 11101111, op = 100010, out = 01001100                 100
Error en operacion 100010 en tiempo                  100 ns
a = 00001010, b = 11101111, op = 100010, out = 11001100                 100
Error en operacion 100010 en tiempo                  107 ns
a = 00001010, b = 11101111, op = 100010, out = 11001101                 107
Error en operacion 100010 en tiempo                  107 ns
a = 00001010, b = 11101111, op = 100010, out = 11001001                 107
Error en operacion 100010 en tiempo                  107 ns
a = 00001010, b = 11101111, op = 100010, out = 11001101                 107
Error en operacion 100010 en tiempo                  107 ns
a = 00001010, b = 11101111, op = 100010, out = 11011111                 107
Error en operacion 100010 en tiempo                  107 ns
a = 00001010, b = 11101111, op = 100010, out = 11100101                 107
Error en operacion 100010 en tiempo                  108 ns
a = 00001010, b = 11101111, op = 100010, out = 01100100                 108
Error en operacion 100010 en tiempo                  108 ns
a = 00001010, b = 11101111, op = 100010, out = 01100000                 108
Error en operacion 100010 en tiempo                  108 ns
a = 00001010, b = 11101111, op = 100010, out = 00010000                 108
a = 00101000, b = 11011100, op = 111111, out = 00010000                 108
Error en operacion 111111 en tiempo                  108 ns
a = 00101000, b = 11011100, op = 111111, out = 00010100                 108
Error en operacion 111111 en tiempo                  108 ns
a = 00101000, b = 11011100, op = 111111, out = 01000100                 108
Error en operacion 111111 en tiempo                  108 ns
a = 00101000, b = 11011100, op = 111111, out = 01000101                 108
Error en operacion 111111 en tiempo                  108 ns
a = 00101000, b = 11011100, op = 111111, out = 01010101                 108
Error en operacion 111111 en tiempo                  108 ns
a = 00101000, b = 11011100, op = 111111, out = 01000101                 108
Error en operacion 111111 en tiempo                  108 ns
a = 00101000, b = 11011100, op = 111111, out = 01100101                 108
Error en operacion 111111 en tiempo                  108 ns
a = 00101000, b = 11011100, op = 111111, out = 01100111                 108
Error en operacion 111111 en tiempo                  108 ns
a = 00101000, b = 11011100, op = 111111, out = 01100011                 108
Error en operacion 111111 en tiempo                  108 ns
a = 00101000, b = 11011100, op = 111111, out = 00100011                 108
Error en operacion 111111 en tiempo                  109 ns
a = 00101000, b = 11011100, op = 111111, out = 00110011                 109
Error en operacion 111111 en tiempo                  109 ns
a = 00101000, b = 11011100, op = 111111, out = 00010011                 109
Error en operacion 111111 en tiempo                  109 ns
a = 00101000, b = 11011100, op = 111111, out = 00011011                 109
Error en operacion 111111 en tiempo                  116 ns
a = 00101000, b = 11011100, op = 111111, out = 00011010                 116
Error en operacion 111111 en tiempo                  116 ns
a = 00101000, b = 11011100, op = 111111, out = 01011010                 116
a = 00101000, b = 11011100, op = 111111, out = 00000000                 116
a = 00001000, b = 11110111, op = 100000, out = 00000000                 116
Error en operacion 100000 en tiempo                  124 ns
a = 00001000, b = 11110111, op = 100000, out = 00001010                 124
a = 00010100, b = 11110111, op = 111111, out = 00001010                 124
Error en operacion 111111 en tiempo                  124 ns
a = 00010100, b = 11110111, op = 111111, out = 00001011                 124
Error en operacion 111111 en tiempo                  124 ns
a = 00010100, b = 11110111, op = 111111, out = 00011011                 124
Error en operacion 111111 en tiempo                  124 ns
a = 00010100, b = 11110111, op = 111111, out = 00111001                 124
Error en operacion 111111 en tiempo                  124 ns
a = 00010100, b = 11110111, op = 111111, out = 00011011                 124
Error en operacion 111111 en tiempo                  124 ns
a = 00010100, b = 11110111, op = 111111, out = 00111011                 124
Error en operacion 111111 en tiempo                  124 ns
a = 00010100, b = 11110111, op = 111111, out = 00111111                 124
Error en operacion 111111 en tiempo                  124 ns
a = 00010100, b = 11110111, op = 111111, out = 01111111                 124
Error en operacion 111111 en tiempo                  124 ns
a = 00010100, b = 11110111, op = 111111, out = 11111111                 124
Error en operacion 111111 en tiempo                  125 ns
a = 00010100, b = 11110111, op = 111111, out = 11101111                 125
Error en operacion 111111 en tiempo                  125 ns
a = 00010100, b = 11110111, op = 111111, out = 11111111                 125
Error en operacion 111111 en tiempo                  125 ns
a = 00010100, b = 11110111, op = 111111, out = 11110111                 125
Error en operacion 111111 en tiempo                  125 ns
a = 00010100, b = 11110111, op = 111111, out = 11111111                 125
Error en operacion 111111 en tiempo                  132 ns
a = 00010100, b = 11110111, op = 111111, out = 01111110                 132
Error en operacion 111111 en tiempo                  132 ns
a = 00010100, b = 11110111, op = 111111, out = 01111010                 132
a = 00010100, b = 11110111, op = 111111, out = 00000000                 132
a = 00010100, b = 00000011, op = 000011, out = 00000000                 132
Error en operacion 000011 en tiempo                  140 ns
a = 00010100, b = 00000011, op = 000011, out = 00000001                 140
Error en operacion 000011 en tiempo                  140 ns
a = 00010100, b = 00000011, op = 000011, out = 00000000                 140
a = 00100000, b = 11110000, op = 100111, out = 00000000                 140
Error en operacion 100111 en tiempo                  140 ns
a = 00100000, b = 11110000, op = 100111, out = 00000100                 140
Error en operacion 100111 en tiempo                  140 ns
a = 00100000, b = 11110000, op = 100111, out = 00010110                 140
Error en operacion 100111 en tiempo                  140 ns
a = 00100000, b = 11110000, op = 100111, out = 00010010                 140
Error en operacion 100111 en tiempo                  140 ns
a = 00100000, b = 11110000, op = 100111, out = 00000010                 140
Error en operacion 100111 en tiempo                  147 ns
a = 00100000, b = 11110000, op = 100111, out = 00000000                 147
Error en operacion 100111 en tiempo                  147 ns
a = 00100000, b = 11110000, op = 100111, out = 00000100                 147
Error en operacion 100111 en tiempo                  147 ns
a = 00100000, b = 11110000, op = 100111, out = 00000110                 147
Error en operacion 100111 en tiempo                  148 ns
a = 00100000, b = 11110000, op = 100111, out = 00000100                 148
Error en operacion 100111 en tiempo                  148 ns
a = 00100000, b = 11110000, op = 100111, out = 00000101                 148
Error en operacion 100111 en tiempo                  148 ns
a = 00100000, b = 11110000, op = 100111, out = 10000101                 148
Error en operacion 100111 en tiempo                  148 ns
a = 00100000, b = 11110000, op = 100111, out = 10000001                 148
a = 11111111, b = 00011000, op = 100101, out = 10000001                 148
Error en operacion 100101 en tiempo                  148 ns
a = 11111111, b = 00011000, op = 100101, out = 00000001                 148
Error en operacion 100101 en tiempo                  148 ns
a = 11111111, b = 00011000, op = 100101, out = 00000101                 148
Error en operacion 100101 en tiempo                  148 ns
a = 11111111, b = 00011000, op = 100101, out = 00001111                 148
Error en operacion 100101 en tiempo                  155 ns
a = 11111111, b = 00011000, op = 100101, out = 00001110                 155
Error en operacion 100101 en tiempo                  155 ns
a = 11111111, b = 00011000, op = 100101, out = 00001010                 155
Error en operacion 100101 en tiempo                  155 ns
a = 11111111, b = 00011000, op = 100101, out = 00000000                 155
Error en operacion 100101 en tiempo                  156 ns
a = 11111111, b = 00011000, op = 100101, out = 10000000                 156
a = 00110101, b = 00000101, op = 100000, out = 10000000                 156
Error en operacion 100000 en tiempo                  156 ns
a = 00110101, b = 00000101, op = 100000, out = 10000100                 156
Error en operacion 100000 en tiempo                  156 ns
a = 00110101, b = 00000101, op = 100000, out = 11001110                 156
Error en operacion 100000 en tiempo                  156 ns
a = 00110101, b = 00000101, op = 100000, out = 11001111                 156
Error en operacion 100000 en tiempo                  156 ns
a = 00110101, b = 00000101, op = 100000, out = 11111111                 156
Error en operacion 100000 en tiempo                  163 ns
a = 00110101, b = 00000101, op = 100000, out = 01111111                 163
Error en operacion 100000 en tiempo                  163 ns
a = 00110101, b = 00000101, op = 100000, out = 00111101                 163
Error en operacion 100000 en tiempo                  163 ns
a = 00110101, b = 00000101, op = 100000, out = 00110101                 163
a = 00100010, b = 00010001, op = 100101, out = 00110101                 164
Error en operacion 100101 en tiempo                  164 ns
a = 00100010, b = 00010001, op = 100101, out = 00110100                 164
Error en operacion 100101 en tiempo                  164 ns
a = 00100010, b = 00010001, op = 100101, out = 00000110                 164
Error en operacion 100101 en tiempo                  164 ns
a = 00100010, b = 00010001, op = 100101, out = 00010110                 164
Error en operacion 100101 en tiempo                  164 ns
a = 00100010, b = 00010001, op = 100101, out = 00110110                 164
Error en operacion 100101 en tiempo                  164 ns
a = 00100010, b = 00010001, op = 100101, out = 00110010                 164
Error en operacion 100101 en tiempo                  164 ns
a = 00100010, b = 00010001, op = 100101, out = 01110010                 164
Error en operacion 100101 en tiempo                  164 ns
a = 00100010, b = 00010001, op = 100101, out = 11110010                 164
Error en operacion 100101 en tiempo                  164 ns
a = 00100010, b = 00010001, op = 100101, out = 10110010                 164
Error en operacion 100101 en tiempo                  164 ns
a = 00100010, b = 00010001, op = 100101, out = 00110010                 164
Error en operacion 100101 en tiempo                  165 ns
a = 00100010, b = 00010001, op = 100101, out = 00111010                 165
Error en operacion 100101 en tiempo                  172 ns
a = 00100010, b = 00010001, op = 100101, out = 00111110                 172
Error en operacion 100101 en tiempo                  172 ns
a = 00100010, b = 00010001, op = 100101, out = 00110110                 172
a = 00101110, b = 00010001, op = 100100, out = 00110110                 172
Error en operacion 100100 en tiempo                  172 ns
a = 00101110, b = 00010001, op = 100100, out = 00110111                 172
Error en operacion 100100 en tiempo                  172 ns
a = 00101110, b = 00010001, op = 100100, out = 00110011                 172
Error en operacion 100100 en tiempo                  179 ns
a = 00101110, b = 00010001, op = 100100, out = 00110111                 179
Error en operacion 100100 en tiempo                  179 ns
a = 00101110, b = 00010001, op = 100100, out = 00111111                 179
Error en operacion 100100 en tiempo                  180 ns
a = 00101110, b = 00010001, op = 100100, out = 00111110                 180
Error en operacion 100100 en tiempo                  180 ns
a = 00101110, b = 00010001, op = 100100, out = 00111010                 180
a = 00101110, b = 00010001, op = 100100, out = 00000000                 180
a = 00111101, b = 00001111, op = 100111, out = 00000000                 180
Error en operacion 100111 en tiempo                  187 ns
a = 00111101, b = 00001111, op = 100111, out = 00000001                 187
Error en operacion 100111 en tiempo                  187 ns
a = 00111101, b = 00001111, op = 100111, out = 00000101                 187
Error en operacion 100111 en tiempo                  187 ns
a = 00111101, b = 00001111, op = 100111, out = 00010101                 187
Error en operacion 100111 en tiempo                  187 ns
a = 00111101, b = 00001111, op = 100111, out = 00001101                 187
Error en operacion 100111 en tiempo                  188 ns
a = 00111101, b = 00001111, op = 100111, out = 00001100                 188
Error en operacion 100111 en tiempo                  188 ns
a = 00111101, b = 00001111, op = 100111, out = 00111110                 188
Error en operacion 100111 en tiempo                  188 ns
a = 00111101, b = 00001111, op = 100111, out = 00111010                 188
a = 01001001, b = 11111101, op = 100110, out = 00111010                 188
Error en operacion 100110 en tiempo                  188 ns
a = 01001001, b = 11111101, op = 100110, out = 00000000                 188
Error en operacion 100110 en tiempo                  188 ns
a = 01001001, b = 11111101, op = 100110, out = 10000000                 188
Error en operacion 100110 en tiempo                  188 ns
a = 01001001, b = 11111101, op = 100110, out = 11000000                 188
Error en operacion 100110 en tiempo                  195 ns
a = 01001001, b = 11111101, op = 100110, out = 01000000                 195
Error en operacion 100110 en tiempo                  195 ns
a = 01001001, b = 11111101, op = 100110, out = 00110000                 195
Error en operacion 100110 en tiempo                  195 ns
a = 01001001, b = 11111101, op = 100110, out = 00000010                 195
Error en operacion 100110 en tiempo                  196 ns
a = 01001001, b = 11111101, op = 100110, out = 00000110                 196
Error en operacion 100110 en tiempo                  196 ns
a = 01001001, b = 11111101, op = 100110, out = 00110100                 196
a = 00110110, b = 00011011, op = 100000, out = 00110100                 196
Error en operacion 100000 en tiempo                  196 ns
a = 00110110, b = 00011011, op = 100000, out = 10110100                 196
Error en operacion 100000 en tiempo                  203 ns
a = 00110110, b = 00011011, op = 100000, out = 00110101                 203
Error en operacion 100000 en tiempo                  203 ns
a = 00110110, b = 00011011, op = 100000, out = 00110001                 203
Error en operacion 100000 en tiempo                  203 ns
a = 00110110, b = 00011011, op = 100000, out = 00110101                 203
Error en operacion 100000 en tiempo                  203 ns
a = 00110110, b = 00011011, op = 100000, out = 01001111                 203
Error en operacion 100000 en tiempo                  203 ns
a = 00110110, b = 00011011, op = 100000, out = 00101101                 203
Error en operacion 100000 en tiempo                  204 ns
a = 00110110, b = 00011011, op = 100000, out = 00101100                 204
Error en operacion 100000 en tiempo                  204 ns
a = 00110110, b = 00011011, op = 100000, out = 00101000                 204
Error en operacion 100000 en tiempo                  204 ns
a = 00110110, b = 00011011, op = 100000, out = 01000000                 204
Error en operacion 100000 en tiempo                  204 ns
a = 00110110, b = 00011011, op = 100000, out = 11000000                 204
a = 01010101, b = 00100101, op = 100010, out = 11000000                 204
Error en operacion 100010 en tiempo                  204 ns
a = 01010101, b = 00100101, op = 100010, out = 11000100                 204
Error en operacion 100010 en tiempo                  204 ns
a = 01010101, b = 00100101, op = 100010, out = 10110100                 204
Error en operacion 100010 en tiempo                  204 ns
a = 01010101, b = 00100101, op = 100010, out = 10110101                 204
Error en operacion 100010 en tiempo                  204 ns
a = 01010101, b = 00100101, op = 100010, out = 10100101                 204
Error en operacion 100010 en tiempo                  204 ns
a = 01010101, b = 00100101, op = 100010, out = 10110101                 204
Error en operacion 100010 en tiempo                  204 ns
a = 01010101, b = 00100101, op = 100010, out = 10010111                 204
Error en operacion 100010 en tiempo                  204 ns
a = 01010101, b = 00100101, op = 100010, out = 10110101                 204
Error en operacion 100010 en tiempo                  204 ns
a = 01010101, b = 00100101, op = 100010, out = 10010111                 204
Error en operacion 100010 en tiempo                  204 ns
a = 01010101, b = 00100101, op = 100010, out = 10010011                 204
Error en operacion 100010 en tiempo                  204 ns
a = 01010101, b = 00100101, op = 100010, out = 10010111                 204
Error en operacion 100010 en tiempo                  204 ns
a = 01010101, b = 00100101, op = 100010, out = 10010011                 204
Error en operacion 100010 en tiempo                  204 ns
a = 01010101, b = 00100101, op = 100010, out = 11010011                 204
Error en operacion 100010 en tiempo                  204 ns
a = 01010101, b = 00100101, op = 100010, out = 10010011                 204
Error en operacion 100010 en tiempo                  204 ns
a = 01010101, b = 00100101, op = 100010, out = 11010011                 204
Error en operacion 100010 en tiempo                  204 ns
a = 01010101, b = 00100101, op = 100010, out = 01010011                 204
Error en operacion 100010 en tiempo                  205 ns
a = 01010101, b = 00100101, op = 100010, out = 01000011                 205
Error en operacion 100010 en tiempo                  205 ns
a = 01010101, b = 00100101, op = 100010, out = 01010011                 205
Error en operacion 100010 en tiempo                  205 ns
a = 01010101, b = 00100101, op = 100010, out = 01010001                 205
Error en operacion 100010 en tiempo                  205 ns
a = 01010101, b = 00100101, op = 100010, out = 01011001                 205
Error en operacion 100010 en tiempo                  205 ns
a = 01010101, b = 00100101, op = 100010, out = 01010001                 205
Error en operacion 100010 en tiempo                  212 ns
a = 01010101, b = 00100101, op = 100010, out = 01010101                 212
Error en operacion 100010 en tiempo                  212 ns
a = 01010101, b = 00100101, op = 100010, out = 01000101                 212
Error en operacion 100010 en tiempo                  212 ns
a = 01010101, b = 00100101, op = 100010, out = 01001101                 212
Error en operacion 100010 en tiempo                  212 ns
a = 01010101, b = 00100101, op = 100010, out = 11001101                 212
a = 00110100, b = 00100011, op = 111111, out = 11001101                 212
Error en operacion 111111 en tiempo                  212 ns
